EESchema Schematic File Version 4
LIBS:Lilypad_ESP32-cache
EELAYER 29 0
EELAYER END
$Descr A4 11693 8268
encoding utf-8
Sheet 1 1
Title ""
Date ""
Rev ""
Comp ""
Comment1 ""
Comment2 ""
Comment3 ""
Comment4 ""
$EndDescr
$Comp
L Interface_USB:FT231XS U2
U 1 1 5DC22334
P 3750 6550
F 0 "U2" H 3750 6600 50  0000 C CNN
F 1 "FT231XS" H 3750 6500 50  0000 C CNN
F 2 "Package_SO:SSOP-20_3.9x8.7mm_P0.635mm" H 4350 5600 50  0001 C CNN
F 3 "http://www.ftdichip.com/Products/ICs/FT231X.html" H 3750 6550 50  0001 C CNN
F 4 "FT231XS-R" H 3750 6550 50  0001 C CNN "SKU"
	1    3750 6550
	1    0    0    -1  
$EndComp
$Comp
L Connector:USB_B_Micro J1
U 1 1 5DC23691
P 1200 6350
F 0 "J1" H 970 6247 50  0000 R CNN
F 1 "USB_B_Micro" H 970 6338 50  0000 R CNN
F 2 "Connector_USB:USB_Micro-B_GCT_USB3076-30-A" H 1350 6300 50  0001 C CNN
F 3 "~" H 1350 6300 50  0001 C CNN
F 4 "2073-USB3076-30-ACT-ND" H 1200 6350 50  0001 C CNN "SKU"
	1    1200 6350
	1    0    0    1   
$EndComp
$Comp
L power:GND #PWR06
U 1 1 5DC257BC
P 1200 5800
F 0 "#PWR06" H 1200 5550 50  0001 C CNN
F 1 "GND" H 1205 5627 50  0000 C CNN
F 2 "" H 1200 5800 50  0001 C CNN
F 3 "" H 1200 5800 50  0001 C CNN
	1    1200 5800
	1    0    0    1   
$EndComp
Wire Wire Line
	1200 5800 1200 5900
Wire Wire Line
	1100 5950 1100 5900
Wire Wire Line
	1100 5900 1200 5900
Connection ~ 1200 5900
Wire Wire Line
	1200 5900 1200 5950
Wire Wire Line
	1500 6350 1900 6350
Wire Wire Line
	2600 6350 3050 6350
$Comp
L Device:R R2
U 1 1 5DC29121
P 2450 6350
F 0 "R2" V 2243 6350 50  0000 C CNN
F 1 "27R" V 2334 6350 50  0000 C CNN
F 2 "Resistor_SMD:R_1206_3216Metric_Pad1.42x1.75mm_HandSolder" V 2380 6350 50  0001 C CNN
F 3 "~" H 2450 6350 50  0001 C CNN
F 4 "311-27.0FRCT-ND" H 2450 6350 50  0001 C CNN "SKU"
	1    2450 6350
	0    1    1    0   
$EndComp
Wire Wire Line
	2500 6550 2300 6550
Wire Wire Line
	3650 5400 3650 5650
Wire Wire Line
	4450 5950 4650 5950
Wire Wire Line
	4450 6050 4650 6050
$Comp
L power:VBUS #PWR016
U 1 1 5DC2E6E4
P 3650 5400
F 0 "#PWR016" H 3650 5250 50  0001 C CNN
F 1 "VBUS" H 3665 5573 50  0000 C CNN
F 2 "" H 3650 5400 50  0001 C CNN
F 3 "" H 3650 5400 50  0001 C CNN
	1    3650 5400
	1    0    0    -1  
$EndComp
$Comp
L power:VBUS #PWR014
U 1 1 5DC2F305
P 2500 6550
F 0 "#PWR014" H 2500 6400 50  0001 C CNN
F 1 "VBUS" V 2515 6678 50  0000 L CNN
F 2 "" H 2500 6550 50  0001 C CNN
F 3 "" H 2500 6550 50  0001 C CNN
	1    2500 6550
	0    1    1    0   
$EndComp
$Comp
L power:GND #PWR018
U 1 1 5DC303A3
P 3850 7500
F 0 "#PWR018" H 3850 7250 50  0001 C CNN
F 1 "GND" H 3855 7327 50  0000 C CNN
F 2 "" H 3850 7500 50  0001 C CNN
F 3 "" H 3850 7500 50  0001 C CNN
	1    3850 7500
	-1   0    0    -1  
$EndComp
$Comp
L power:GND #PWR017
U 1 1 5DC30C9E
P 3650 7500
F 0 "#PWR017" H 3650 7250 50  0001 C CNN
F 1 "GND" H 3655 7327 50  0000 C CNN
F 2 "" H 3650 7500 50  0001 C CNN
F 3 "" H 3650 7500 50  0001 C CNN
	1    3650 7500
	-1   0    0    -1  
$EndComp
Wire Wire Line
	3650 7450 3650 7500
Wire Wire Line
	3850 7500 3850 7450
Text GLabel 4650 6050 2    50   Input ~ 0
U0TXD
Text GLabel 4650 5950 2    50   Input ~ 0
U0RXD
Wire Wire Line
	1550 6550 1550 5500
Connection ~ 1550 6550
Wire Wire Line
	1550 6550 1500 6550
Wire Wire Line
	1900 6350 1900 5500
Connection ~ 1900 6350
Wire Wire Line
	1900 6350 2300 6350
Wire Wire Line
	3850 5600 2900 5600
Wire Wire Line
	2900 5600 2900 5950
Wire Wire Line
	2900 5950 3050 5950
Wire Wire Line
	3850 5650 3850 5600
Wire Wire Line
	2900 5600 2900 5500
Connection ~ 2900 5600
Wire Wire Line
	2900 6550 3050 6550
Connection ~ 2900 5950
Connection ~ 2250 6250
Wire Wire Line
	2250 6250 2250 5500
Wire Wire Line
	1500 6250 2250 6250
$Comp
L Device:C C4
U 1 1 5DC36C5C
P 1550 5350
F 0 "C4" H 1665 5396 50  0000 L CNN
F 1 "0.1uF" H 1665 5305 50  0000 L CNN
F 2 "Capacitor_SMD:C_1206_3216Metric_Pad1.42x1.75mm_HandSolder" H 1588 5200 50  0001 C CNN
F 3 "~" H 1550 5350 50  0001 C CNN
F 4 "399-4674-1-ND" H 1550 5350 50  0001 C CNN "SKU"
	1    1550 5350
	1    0    0    -1  
$EndComp
Wire Wire Line
	2900 5950 2900 6550
Wire Wire Line
	2250 6250 2550 6250
Wire Wire Line
	2850 6250 3050 6250
$Comp
L Device:R R3
U 1 1 5DC28033
P 2700 6250
F 0 "R3" V 2493 6250 50  0000 C CNN
F 1 "27R" V 2584 6250 50  0000 C CNN
F 2 "Resistor_SMD:R_1206_3216Metric_Pad1.42x1.75mm_HandSolder" V 2630 6250 50  0001 C CNN
F 3 "~" H 2700 6250 50  0001 C CNN
F 4 "311-27.0FRCT-ND" H 2700 6250 50  0001 C CNN "SKU"
	1    2700 6250
	0    1    1    0   
$EndComp
$Comp
L Device:C C5
U 1 1 5DC3A7A9
P 1900 5350
F 0 "C5" H 2015 5396 50  0000 L CNN
F 1 "47pF" H 2015 5305 50  0000 L CNN
F 2 "Capacitor_SMD:C_1206_3216Metric_Pad1.42x1.75mm_HandSolder" H 1938 5200 50  0001 C CNN
F 3 "~" H 1900 5350 50  0001 C CNN
F 4 "311-1158-1-ND" H 1900 5350 50  0001 C CNN "SKU"
	1    1900 5350
	1    0    0    -1  
$EndComp
$Comp
L Device:C C7
U 1 1 5DC3ACA0
P 2250 5350
F 0 "C7" H 2365 5396 50  0000 L CNN
F 1 "47pF" H 2365 5305 50  0000 L CNN
F 2 "Capacitor_SMD:C_1206_3216Metric_Pad1.42x1.75mm_HandSolder" H 2288 5200 50  0001 C CNN
F 3 "~" H 2250 5350 50  0001 C CNN
F 4 "311-1158-1-ND" H 2250 5350 50  0001 C CNN "SKU"
	1    2250 5350
	1    0    0    -1  
$EndComp
$Comp
L power:GND #PWR07
U 1 1 5DC3AF2A
P 1550 5150
F 0 "#PWR07" H 1550 4900 50  0001 C CNN
F 1 "GND" H 1555 4977 50  0000 C CNN
F 2 "" H 1550 5150 50  0001 C CNN
F 3 "" H 1550 5150 50  0001 C CNN
	1    1550 5150
	1    0    0    1   
$EndComp
$Comp
L power:GND #PWR08
U 1 1 5DC3B34E
P 1900 5150
F 0 "#PWR08" H 1900 4900 50  0001 C CNN
F 1 "GND" H 1905 4977 50  0000 C CNN
F 2 "" H 1900 5150 50  0001 C CNN
F 3 "" H 1900 5150 50  0001 C CNN
	1    1900 5150
	1    0    0    1   
$EndComp
$Comp
L power:GND #PWR010
U 1 1 5DC3B6D9
P 2250 5150
F 0 "#PWR010" H 2250 4900 50  0001 C CNN
F 1 "GND" H 2255 4977 50  0000 C CNN
F 2 "" H 2250 5150 50  0001 C CNN
F 3 "" H 2250 5150 50  0001 C CNN
	1    2250 5150
	1    0    0    1   
$EndComp
$Comp
L Device:C C9
U 1 1 5DC3B9CB
P 2900 5350
F 0 "C9" H 3015 5396 50  0000 L CNN
F 1 "0.1uF" H 3015 5305 50  0000 L CNN
F 2 "Capacitor_SMD:C_1206_3216Metric_Pad1.42x1.75mm_HandSolder" H 2938 5200 50  0001 C CNN
F 3 "~" H 2900 5350 50  0001 C CNN
F 4 "399-4674-1-ND" H 2900 5350 50  0001 C CNN "SKU"
	1    2900 5350
	1    0    0    -1  
$EndComp
Wire Wire Line
	1900 5150 1900 5200
Wire Wire Line
	1550 5150 1550 5200
Wire Wire Line
	2250 5150 2250 5200
Wire Wire Line
	2900 5150 2900 5200
$Comp
L power:GND #PWR015
U 1 1 5DC3BF7A
P 2900 5150
F 0 "#PWR015" H 2900 4900 50  0001 C CNN
F 1 "GND" H 2905 4977 50  0000 C CNN
F 2 "" H 2900 5150 50  0001 C CNN
F 3 "" H 2900 5150 50  0001 C CNN
	1    2900 5150
	1    0    0    1   
$EndComp
Wire Wire Line
	1650 6550 1550 6550
$Comp
L Device:Ferrite_Bead_Small FB1
U 1 1 5DC6517B
P 1750 6550
F 0 "FB1" V 1605 6550 50  0000 C CNN
F 1 "Ferrite_Bead_Small" V 1604 6550 50  0001 C CNN
F 2 "Inductor_SMD:L_1206_3216Metric_Pad1.42x1.75mm_HandSolder" V 1680 6550 50  0001 C CNN
F 3 "~" H 1750 6550 50  0001 C CNN
F 4 "490-1056-1-ND" H 1750 6550 50  0001 C CNN "SKU"
	1    1750 6550
	0    1    1    0   
$EndComp
$Comp
L Device:C C6
U 1 1 5DC6AA29
P 1950 6800
F 0 "C6" H 2065 6846 50  0000 L CNN
F 1 "0.1uF" H 2065 6755 50  0000 L CNN
F 2 "Capacitor_SMD:C_1206_3216Metric_Pad1.42x1.75mm_HandSolder" H 1988 6650 50  0001 C CNN
F 3 "~" H 1950 6800 50  0001 C CNN
F 4 "399-4674-1-ND" H 1950 6800 50  0001 C CNN "SKU"
	1    1950 6800
	1    0    0    -1  
$EndComp
$Comp
L Device:C C8
U 1 1 5DC6B0BE
P 2300 6800
F 0 "C8" H 2415 6846 50  0000 L CNN
F 1 "4.7uF" H 2415 6755 50  0000 L CNN
F 2 "Capacitor_SMD:C_1206_3216Metric_Pad1.42x1.75mm_HandSolder" H 2338 6650 50  0001 C CNN
F 3 "~" H 2300 6800 50  0001 C CNN
F 4 "399-1262-1-ND" H 2300 6800 50  0001 C CNN "SKU"
	1    2300 6800
	1    0    0    -1  
$EndComp
Wire Wire Line
	1950 6650 1950 6550
Connection ~ 1950 6550
Wire Wire Line
	1950 6550 1850 6550
Wire Wire Line
	2300 6650 2300 6550
Connection ~ 2300 6550
Wire Wire Line
	2300 6550 1950 6550
Wire Wire Line
	2300 6950 2300 7100
Wire Wire Line
	1950 6950 1950 7100
$Comp
L power:GND #PWR09
U 1 1 5DC6EFDD
P 1950 7100
F 0 "#PWR09" H 1950 6850 50  0001 C CNN
F 1 "GND" H 1955 6927 50  0000 C CNN
F 2 "" H 1950 7100 50  0001 C CNN
F 3 "" H 1950 7100 50  0001 C CNN
	1    1950 7100
	-1   0    0    -1  
$EndComp
$Comp
L power:GND #PWR011
U 1 1 5DC6F4E1
P 2300 7100
F 0 "#PWR011" H 2300 6850 50  0001 C CNN
F 1 "GND" H 2305 6927 50  0000 C CNN
F 2 "" H 2300 7100 50  0001 C CNN
F 3 "" H 2300 7100 50  0001 C CNN
	1    2300 7100
	-1   0    0    -1  
$EndComp
Text GLabel 6600 6350 0    50   Input ~ 0
RTS
Text GLabel 6600 6200 0    50   Input ~ 0
DTR
Text GLabel 6600 6050 0    50   Input ~ 0
IO0
Text GLabel 7300 6350 2    50   Input ~ 0
EN
Text GLabel 7300 6200 2    50   Input ~ 0
RTS
Text GLabel 7300 6050 2    50   Input ~ 0
DTR
Text GLabel 4650 6150 2    50   Input ~ 0
RTS
Wire Wire Line
	4650 6150 4450 6150
Wire Wire Line
	4450 6350 4650 6350
Text GLabel 4650 6350 2    50   Input ~ 0
DTR
Wire Wire Line
	7300 6050 7200 6050
Wire Wire Line
	7200 6200 7300 6200
Wire Wire Line
	7300 6350 7200 6350
Wire Wire Line
	6700 6350 6600 6350
Wire Wire Line
	6700 6200 6600 6200
Wire Wire Line
	6600 6050 6700 6050
$Comp
L Device:LED D2
U 1 1 5DCB2EBD
P 5100 6400
F 0 "D2" V 5139 6283 50  0000 R CNN
F 1 "LED_RED" V 5048 6283 50  0000 R CNN
F 2 "LED_SMD:LED_1206_3216Metric_Pad1.42x1.75mm_HandSolder" H 5100 6400 50  0001 C CNN
F 3 "~" H 5100 6400 50  0001 C CNN
F 4 "160-1167-1-ND" H 5100 6400 50  0001 C CNN "SKU"
	1    5100 6400
	0    -1   -1   0   
$EndComp
$Comp
L Device:LED D3
U 1 1 5DCB3A8F
P 5450 6400
F 0 "D3" V 5489 6283 50  0000 R CNN
F 1 "LED_YELLOW" V 5398 6283 50  0000 R CNN
F 2 "LED_SMD:LED_1206_3216Metric_Pad1.42x1.75mm_HandSolder" H 5450 6400 50  0001 C CNN
F 3 "~" H 5450 6400 50  0001 C CNN
F 4 "160-1403-1-ND" H 5450 6400 50  0001 C CNN "SKU"
	1    5450 6400
	0    -1   -1   0   
$EndComp
Wire Wire Line
	5100 6550 5100 6600
Wire Wire Line
	5450 6550 5450 6600
$Comp
L Device:R R6
U 1 1 5DCB66ED
P 5100 6750
F 0 "R6" H 5030 6704 50  0000 R CNN
F 1 "62R" H 5030 6795 50  0000 R CNN
F 2 "Resistor_SMD:R_1206_3216Metric_Pad1.42x1.75mm_HandSolder" V 5030 6750 50  0001 C CNN
F 3 "~" H 5100 6750 50  0001 C CNN
F 4 "311-62.0FRCT-ND" H 5100 6750 50  0001 C CNN "SKU"
	1    5100 6750
	-1   0    0    1   
$EndComp
$Comp
L Device:R R7
U 1 1 5DCB6D9A
P 5450 6750
F 0 "R7" H 5380 6704 50  0000 R CNN
F 1 "62R" H 5380 6795 50  0000 R CNN
F 2 "Resistor_SMD:R_1206_3216Metric_Pad1.42x1.75mm_HandSolder" V 5380 6750 50  0001 C CNN
F 3 "~" H 5450 6750 50  0001 C CNN
F 4 "311-62.0FRCT-ND" H 5450 6750 50  0001 C CNN "SKU"
	1    5450 6750
	-1   0    0    1   
$EndComp
Wire Wire Line
	4450 7050 5100 7050
Wire Wire Line
	5100 7050 5100 6900
Wire Wire Line
	5450 6900 5450 7150
Wire Wire Line
	5450 7150 4450 7150
Wire Wire Line
	4700 4050 4750 4050
$Comp
L Device:R R5
U 1 1 5DCEBB69
P 4900 4050
F 0 "R5" H 4830 4004 50  0000 R CNN
F 1 "62R" H 4830 4095 50  0000 R CNN
F 2 "Resistor_SMD:R_1206_3216Metric_Pad1.42x1.75mm_HandSolder" V 4830 4050 50  0001 C CNN
F 3 "~" H 4900 4050 50  0001 C CNN
F 4 "311-62.0FRCT-ND" H 4900 4050 50  0001 C CNN "SKU"
	1    4900 4050
	0    1    1    0   
$EndComp
Wire Wire Line
	5050 4050 5150 4050
Wire Wire Line
	4300 4050 4400 4050
$Comp
L power:GND #PWR020
U 1 1 5DCF5143
P 5150 4050
F 0 "#PWR020" H 5150 3800 50  0001 C CNN
F 1 "GND" H 5155 3877 50  0000 C CNN
F 2 "" H 5150 4050 50  0001 C CNN
F 3 "" H 5150 4050 50  0001 C CNN
	1    5150 4050
	0    -1   -1   0   
$EndComp
Text GLabel 4300 4050 0    50   Input ~ 0
IO5
$Comp
L RF_Module:ESP32-WROOM-32D U1
U 1 1 5DC1FC60
P 2400 2550
F 0 "U1" H 2400 3250 50  0000 C CNN
F 1 "ESP32-WROOM-32D" H 2300 3150 50  0000 C CNN
F 2 "RF_Module:ESP32-WROOM-32" H 2400 1050 50  0001 C CNN
F 3 "https://www.espressif.com/sites/default/files/documentation/esp32-wroom-32d_esp32-wroom-32u_datasheet_en.pdf" H 2100 2600 50  0001 C CNN
F 4 "ESP32-WROOM-32D" H 2400 2550 50  0001 C CNN "SKU"
	1    2400 2550
	1    0    0    -1  
$EndComp
Text GLabel 3000 1650 2    50   Input ~ 0
U0RXD
Text GLabel 3000 1450 2    50   Input ~ 0
U0TXD
$Comp
L power:GND #PWR013
U 1 1 5DC7360A
P 2400 4050
F 0 "#PWR013" H 2400 3800 50  0001 C CNN
F 1 "GND" H 2405 3877 50  0000 C CNN
F 2 "" H 2400 4050 50  0001 C CNN
F 3 "" H 2400 4050 50  0001 C CNN
	1    2400 4050
	-1   0    0    -1  
$EndComp
Wire Wire Line
	2400 4050 2400 3950
$Comp
L power:+3.3V #PWR04
U 1 1 5DC76F90
P 1200 900
F 0 "#PWR04" H 1200 750 50  0001 C CNN
F 1 "+3.3V" H 1215 1073 50  0000 C CNN
F 2 "" H 1200 900 50  0001 C CNN
F 3 "" H 1200 900 50  0001 C CNN
	1    1200 900 
	1    0    0    -1  
$EndComp
$Comp
L Device:R R1
U 1 1 5DC77570
P 1200 1100
F 0 "R1" H 1270 1146 50  0000 L CNN
F 1 "10k" H 1270 1055 50  0000 L CNN
F 2 "Resistor_SMD:R_1206_3216Metric_Pad1.42x1.75mm_HandSolder" V 1130 1100 50  0001 C CNN
F 3 "~" H 1200 1100 50  0001 C CNN
F 4 "311-10.0KFRCT-ND" H 1200 1100 50  0001 C CNN "SKU"
	1    1200 1100
	1    0    0    -1  
$EndComp
Wire Wire Line
	1200 900  1200 950 
Wire Wire Line
	1200 1350 1800 1350
Wire Wire Line
	1200 1250 1200 1350
Wire Wire Line
	1200 1450 1200 1350
Connection ~ 1200 1350
$Comp
L power:GND #PWR05
U 1 1 5DC7B1DC
P 1200 1950
F 0 "#PWR05" H 1200 1700 50  0001 C CNN
F 1 "GND" H 1205 1777 50  0000 C CNN
F 2 "" H 1200 1950 50  0001 C CNN
F 3 "" H 1200 1950 50  0001 C CNN
	1    1200 1950
	-1   0    0    -1  
$EndComp
Wire Wire Line
	1200 1950 1200 1850
Wire Wire Line
	1200 1350 800  1350
Wire Wire Line
	800  1350 800  1450
$Comp
L Device:C C1
U 1 1 5DC7D696
P 800 1600
F 0 "C1" H 915 1646 50  0000 L CNN
F 1 "0.1uF" H 915 1555 50  0000 L CNN
F 2 "Capacitor_SMD:C_1206_3216Metric_Pad1.42x1.75mm_HandSolder" H 838 1450 50  0001 C CNN
F 3 "~" H 800 1600 50  0001 C CNN
F 4 "399-4674-1-ND" H 800 1600 50  0001 C CNN "SKU"
	1    800  1600
	1    0    0    -1  
$EndComp
$Comp
L power:GND #PWR01
U 1 1 5DC7F72B
P 800 1950
F 0 "#PWR01" H 800 1700 50  0001 C CNN
F 1 "GND" H 805 1777 50  0000 C CNN
F 2 "" H 800 1950 50  0001 C CNN
F 3 "" H 800 1950 50  0001 C CNN
	1    800  1950
	-1   0    0    -1  
$EndComp
Wire Wire Line
	800  1950 800  1750
Text GLabel 3000 2350 2    50   Input ~ 0
IO16
Text GLabel 3000 2450 2    50   Input ~ 0
IO17
Text GLabel 3000 2550 2    50   Input ~ 0
IO18
Text GLabel 3000 2650 2    50   Input ~ 0
IO19
Text GLabel 3000 2750 2    50   Input ~ 0
IO21
Text GLabel 3000 2950 2    50   Input ~ 0
IO23
Text GLabel 3000 3050 2    50   Input ~ 0
IO25
Text GLabel 3000 3150 2    50   Input ~ 0
IO26
Text GLabel 3000 3550 2    50   Input ~ 0
IO34
Text GLabel 3000 3650 2    50   Input ~ 0
IO35
Text GLabel 3000 1350 2    50   Input ~ 0
IO0
Text GLabel 3000 1850 2    50   Input ~ 0
IO5
$Comp
L power:+3.3V #PWR012
U 1 1 5DC7462C
P 2400 900
F 0 "#PWR012" H 2400 750 50  0001 C CNN
F 1 "+3.3V" H 2415 1073 50  0000 C CNN
F 2 "" H 2400 900 50  0001 C CNN
F 3 "" H 2400 900 50  0001 C CNN
	1    2400 900 
	1    0    0    -1  
$EndComp
Wire Wire Line
	2400 900  2400 1150
$Comp
L Device:LED D1
U 1 1 5DCEBB5E
P 4550 4050
F 0 "D1" V 4600 3950 50  0000 R CNN
F 1 "LED_GREEN" V 4500 3950 50  0000 R CNN
F 2 "LED_SMD:LED_1206_3216Metric_Pad1.42x1.75mm_HandSolder" H 4550 4050 50  0001 C CNN
F 3 "~" H 4550 4050 50  0001 C CNN
F 4 "160-1169-1-ND" H 4550 4050 50  0001 C CNN "SKU"
	1    4550 4050
	-1   0    0    1   
$EndComp
Text GLabel 3000 2850 2    50   Input ~ 0
IO22
$Comp
L ESP32-library:IMH3A U3
U 1 1 5DC81DB0
P 6950 6200
F 0 "U3" H 6950 6575 50  0000 C CNN
F 1 "IMH3A" H 6950 6484 50  0000 C CNN
F 2 "ESP32_footprints:IMH3A" V 6950 6200 50  0001 C CNN
F 3 "" V 6950 6200 50  0001 C CNN
F 4 "IMH3AT110CT-ND" H 6950 6200 50  0001 C CNN "SKU"
	1    6950 6200
	1    0    0    -1  
$EndComp
$Comp
L power:+3.3V #PWR019
U 1 1 5DE4A8F3
P 4700 3200
F 0 "#PWR019" H 4700 3050 50  0001 C CNN
F 1 "+3.3V" H 4715 3373 50  0000 C CNN
F 2 "" H 4700 3200 50  0001 C CNN
F 3 "" H 4700 3200 50  0001 C CNN
	1    4700 3200
	1    0    0    -1  
$EndComp
$Comp
L Device:R R4
U 1 1 5DE4A8FD
P 4700 3400
F 0 "R4" H 4770 3446 50  0000 L CNN
F 1 "10k" H 4770 3355 50  0000 L CNN
F 2 "Resistor_SMD:R_1206_3216Metric_Pad1.42x1.75mm_HandSolder" V 4630 3400 50  0001 C CNN
F 3 "~" H 4700 3400 50  0001 C CNN
F 4 "311-10.0KFRCT-ND" H 4700 3400 50  0001 C CNN "SKU"
	1    4700 3400
	1    0    0    -1  
$EndComp
Wire Wire Line
	4700 3200 4700 3250
Wire Wire Line
	4700 3550 4700 3650
Wire Wire Line
	4900 3650 4700 3650
Connection ~ 4700 3650
$Comp
L power:GND #PWR021
U 1 1 5DE4A90C
P 5400 3650
F 0 "#PWR021" H 5400 3400 50  0001 C CNN
F 1 "GND" H 5405 3477 50  0000 C CNN
F 2 "" H 5400 3650 50  0001 C CNN
F 3 "" H 5400 3650 50  0001 C CNN
	1    5400 3650
	0    -1   1    0   
$EndComp
Wire Wire Line
	5400 3650 5300 3650
Wire Wire Line
	4700 3650 4300 3650
Text GLabel 4300 3650 0    50   Input ~ 0
IO0
Wire Notes Line
	3900 500  3900 4450
Wire Notes Line
	5700 5700 8050 5700
Wire Notes Line
	8050 500  8050 6500
Wire Notes Line
	5700 1900 3900 1900
Wire Notes Line
	5700 1900 5700 7750
$Comp
L power:GND #PWR03
U 1 1 5DF2A91C
P 800 3150
F 0 "#PWR03" H 800 2900 50  0001 C CNN
F 1 "GND" H 805 2977 50  0000 C CNN
F 2 "" H 800 3150 50  0001 C CNN
F 3 "" H 800 3150 50  0001 C CNN
	1    800  3150
	-1   0    0    -1  
$EndComp
$Comp
L Device:C C2
U 1 1 5DF30173
P 800 2800
F 0 "C2" H 915 2846 50  0000 L CNN
F 1 "10uF" H 915 2755 50  0000 L CNN
F 2 "Capacitor_SMD:C_1206_3216Metric_Pad1.42x1.75mm_HandSolder" H 838 2650 50  0001 C CNN
F 3 "~" H 800 2800 50  0001 C CNN
F 4 "1276-3295-1-ND" H 800 2800 50  0001 C CNN "SKU"
	1    800  2800
	1    0    0    -1  
$EndComp
$Comp
L Device:C C3
U 1 1 5DF30892
P 1200 2800
F 0 "C3" H 1315 2846 50  0000 L CNN
F 1 "0.1uF" H 1315 2755 50  0000 L CNN
F 2 "Capacitor_SMD:C_1206_3216Metric_Pad1.42x1.75mm_HandSolder" H 1238 2650 50  0001 C CNN
F 3 "~" H 1200 2800 50  0001 C CNN
F 4 "399-4674-1-ND" H 1200 2800 50  0001 C CNN "SKU"
	1    1200 2800
	1    0    0    -1  
$EndComp
$Comp
L power:+3.3V #PWR02
U 1 1 5DF30DCE
P 800 2450
F 0 "#PWR02" H 800 2300 50  0001 C CNN
F 1 "+3.3V" H 815 2623 50  0000 C CNN
F 2 "" H 800 2450 50  0001 C CNN
F 3 "" H 800 2450 50  0001 C CNN
	1    800  2450
	1    0    0    -1  
$EndComp
Wire Wire Line
	800  2450 800  2550
Wire Wire Line
	800  2550 1200 2550
Wire Wire Line
	1200 2550 1200 2650
Connection ~ 800  2550
Wire Wire Line
	800  2550 800  2650
Wire Wire Line
	1200 2950 1200 3050
Wire Wire Line
	800  2950 800  3050
Wire Wire Line
	800  3050 1200 3050
Connection ~ 800  3050
Wire Wire Line
	800  3050 800  3150
$Comp
L Switch:SW_SPST SW2
U 1 1 5DE4F1B3
P 5100 3650
F 0 "SW2" H 5100 3885 50  0000 C CNN
F 1 "SW_SPST" H 5100 3794 50  0000 C CNN
F 2 "Button_Switch_SMD:SW_SPST_EVQP2" H 5100 3650 50  0001 C CNN
F 3 "~" H 5100 3650 50  0001 C CNN
F 4 "P16765CT-ND" H 5100 3650 50  0001 C CNN "SKU"
	1    5100 3650
	1    0    0    -1  
$EndComp
$Comp
L Switch:SW_SPST SW1
U 1 1 5DE4F886
P 1200 1650
F 0 "SW1" V 1154 1748 50  0000 L CNN
F 1 "SW_SPST" V 1245 1748 50  0000 L CNN
F 2 "Button_Switch_SMD:SW_SPST_EVQP2" H 1200 1650 50  0001 C CNN
F 3 "~" H 1200 1650 50  0001 C CNN
F 4 "P16765CT-ND" H 1200 1650 50  0001 C CNN "SKU"
	1    1200 1650
	0    1    1    0   
$EndComp
NoConn ~ 1500 6150
Text GLabel 1550 1350 1    50   Input ~ 0
EN
Text GLabel 1800 1650 0    50   Input ~ 0
VN
Text GLabel 1800 1550 0    50   Input ~ 0
VP
Text GLabel 3000 3250 2    50   Input ~ 0
IO27
Text GLabel 3000 3350 2    50   Input ~ 0
IO32
Text GLabel 3000 3450 2    50   Input ~ 0
IO33
Text GLabel 3000 1950 2    50   Input ~ 0
IO12
Text GLabel 3000 2050 2    50   Input ~ 0
IO13
Text GLabel 3000 2150 2    50   Input ~ 0
IO14
Text GLabel 3000 2250 2    50   Input ~ 0
IO15
Text GLabel 3000 1750 2    50   Input ~ 0
IO4
Text GLabel 3000 1550 2    50   Input ~ 0
IO02
NoConn ~ 4450 6450
NoConn ~ 4450 6250
NoConn ~ 4450 6550
NoConn ~ 4450 6650
NoConn ~ 4450 6850
NoConn ~ 4450 6950
NoConn ~ 1800 2550
NoConn ~ 1800 2650
NoConn ~ 1800 2750
NoConn ~ 1800 2850
NoConn ~ 1800 2950
NoConn ~ 1800 3050
$Comp
L power:+3.3V #PWR0121
U 1 1 5E0FE15D
P 5100 5550
F 0 "#PWR0121" H 5100 5400 50  0001 C CNN
F 1 "+3.3V" H 5115 5723 50  0000 C CNN
F 2 "" H 5100 5550 50  0001 C CNN
F 3 "" H 5100 5550 50  0001 C CNN
	1    5100 5550
	1    0    0    -1  
$EndComp
Wire Wire Line
	5100 6250 5100 5900
Wire Wire Line
	5450 6250 5450 5900
Wire Wire Line
	5450 5900 5100 5900
Connection ~ 5100 5900
Wire Wire Line
	5100 5900 5100 5550
Text GLabel 4400 2250 0    50   Input ~ 0
IO21
Text GLabel 4400 2450 0    50   Input ~ 0
IO22
$Comp
L power:+3.3V #PWR0122
U 1 1 5DD50AD8
P 5150 2350
F 0 "#PWR0122" H 5150 2200 50  0001 C CNN
F 1 "+3.3V" H 5165 2523 50  0000 C CNN
F 2 "" H 5150 2350 50  0001 C CNN
F 3 "" H 5150 2350 50  0001 C CNN
	1    5150 2350
	0    1    1    0   
$EndComp
$Comp
L Device:R R12
U 1 1 5DD50F15
P 4750 2250
F 0 "R12" H 4680 2204 50  0000 R CNN
F 1 "1k" H 4680 2295 50  0000 R CNN
F 2 "Resistor_SMD:R_1206_3216Metric_Pad1.42x1.75mm_HandSolder" V 4680 2250 50  0001 C CNN
F 3 "~" H 4750 2250 50  0001 C CNN
F 4 "311-1.00KFRCT-ND" H 4750 2250 50  0001 C CNN "SKU"
	1    4750 2250
	0    -1   1    0   
$EndComp
$Comp
L Device:R R13
U 1 1 5DD513AA
P 4750 2450
F 0 "R13" H 4680 2404 50  0000 R CNN
F 1 "1k" H 4680 2495 50  0000 R CNN
F 2 "Resistor_SMD:R_1206_3216Metric_Pad1.42x1.75mm_HandSolder" V 4680 2450 50  0001 C CNN
F 3 "~" H 4750 2450 50  0001 C CNN
F 4 "311-1.00KFRCT-ND" H 4750 2450 50  0001 C CNN "SKU"
	1    4750 2450
	0    -1   1    0   
$EndComp
Wire Wire Line
	4600 2450 4400 2450
Wire Wire Line
	4600 2250 4400 2250
Wire Wire Line
	4900 2250 5050 2250
Wire Wire Line
	5050 2250 5050 2350
Wire Wire Line
	5050 2350 5150 2350
Wire Wire Line
	5050 2350 5050 2450
Wire Wire Line
	5050 2450 4900 2450
Connection ~ 5050 2350
Wire Notes Line
	5700 4450 500  4450
$Comp
L Connector:Conn_01x30_Male J2
U 1 1 5DD9FFD3
P 7300 3150
F 0 "J2" H 7272 3082 50  0000 R CNN
F 1 "Conn_01x30_Male" H 7272 3173 50  0000 R CNN
F 2 "ESP32_footprints:CPA_39" H 7300 3150 50  0001 C CNN
F 3 "~" H 7300 3150 50  0001 C CNN
	1    7300 3150
	1    0    0    1   
$EndComp
Text GLabel 7500 1750 2    50   Input ~ 0
IO32
Text GLabel 7500 1850 2    50   Input ~ 0
IO33
Text GLabel 7500 1950 2    50   Input ~ 0
IO25
Text GLabel 7500 2050 2    50   Input ~ 0
IO26
Text GLabel 7500 2150 2    50   Input ~ 0
IO27
Text GLabel 7500 2450 2    50   Input ~ 0
IO14
Text GLabel 7500 2550 2    50   Input ~ 0
IO12
$Comp
L power:+3.3V #PWR0101
U 1 1 5DDA4B7A
P 7500 2350
F 0 "#PWR0101" H 7500 2200 50  0001 C CNN
F 1 "+3.3V" H 7515 2523 50  0000 C CNN
F 2 "" H 7500 2350 50  0001 C CNN
F 3 "" H 7500 2350 50  0001 C CNN
	1    7500 2350
	0    1    1    0   
$EndComp
$Comp
L power:GND #PWR0102
U 1 1 5DDA5608
P 7500 2250
F 0 "#PWR0102" H 7500 2000 50  0001 C CNN
F 1 "GND" H 7505 2077 50  0000 C CNN
F 2 "" H 7500 2250 50  0001 C CNN
F 3 "" H 7500 2250 50  0001 C CNN
	1    7500 2250
	0    -1   1    0   
$EndComp
Text GLabel 7500 2650 2    50   Input ~ 0
IO13
Text GLabel 7500 2750 2    50   Input ~ 0
IO15
Text GLabel 7500 2850 2    50   Input ~ 0
IO02
Text GLabel 7500 2950 2    50   Input ~ 0
IO0
Text GLabel 7500 3250 2    50   Input ~ 0
IO4
Text GLabel 7500 3350 2    50   Input ~ 0
IO16
Text GLabel 7500 3450 2    50   Input ~ 0
IO17
Text GLabel 7500 3550 2    50   Input ~ 0
IO5
Text GLabel 7500 3650 2    50   Input ~ 0
IO18
Text GLabel 7500 3750 2    50   Input ~ 0
IO19
Text GLabel 7500 4050 2    50   Input ~ 0
IO21
Text GLabel 7500 4150 2    50   Input ~ 0
U0RXD
Text GLabel 7500 4250 2    50   Input ~ 0
U0TXD
Text GLabel 7500 4350 2    50   Input ~ 0
IO22
Text GLabel 7500 4450 2    50   Input ~ 0
IO23
$Comp
L power:+3.3V #PWR0103
U 1 1 5DDC5849
P 7500 3850
F 0 "#PWR0103" H 7500 3700 50  0001 C CNN
F 1 "+3.3V" H 7515 4023 50  0000 C CNN
F 2 "" H 7500 3850 50  0001 C CNN
F 3 "" H 7500 3850 50  0001 C CNN
	1    7500 3850
	0    1    1    0   
$EndComp
$Comp
L power:GND #PWR0104
U 1 1 5DDC5853
P 7500 3950
F 0 "#PWR0104" H 7500 3700 50  0001 C CNN
F 1 "GND" H 7505 3777 50  0000 C CNN
F 2 "" H 7500 3950 50  0001 C CNN
F 3 "" H 7500 3950 50  0001 C CNN
	1    7500 3950
	0    -1   1    0   
$EndComp
$Comp
L power:GND #PWR0105
U 1 1 5DDDF6B7
P 6850 5300
F 0 "#PWR0105" H 6850 5050 50  0001 C CNN
F 1 "GND" H 6855 5127 50  0000 C CNN
F 2 "" H 6850 5300 50  0001 C CNN
F 3 "" H 6850 5300 50  0001 C CNN
	1    6850 5300
	-1   0    0    -1  
$EndComp
$Comp
L power:+3.3V #PWR0106
U 1 1 5DDDF9A9
P 7150 5000
F 0 "#PWR0106" H 7150 4850 50  0001 C CNN
F 1 "+3.3V" H 7165 5173 50  0000 C CNN
F 2 "" H 7150 5000 50  0001 C CNN
F 3 "" H 7150 5000 50  0001 C CNN
	1    7150 5000
	0    1    1    0   
$EndComp
$Comp
L power:VBUS #PWR0107
U 1 1 5DDE00F9
P 6550 5000
F 0 "#PWR0107" H 6550 4850 50  0001 C CNN
F 1 "VBUS" V 6565 5128 50  0000 L CNN
F 2 "" H 6550 5000 50  0001 C CNN
F 3 "" H 6550 5000 50  0001 C CNN
	1    6550 5000
	0    -1   -1   0   
$EndComp
$Comp
L Regulator_Linear:AMS1117-3.3 U4
U 1 1 5DDE186B
P 6850 5000
F 0 "U4" H 6850 5242 50  0000 C CNN
F 1 "AMS1117-3.3" H 6850 5151 50  0000 C CNN
F 2 "Package_TO_SOT_SMD:SOT-223-3_TabPin2" H 6850 5200 50  0001 C CNN
F 3 "http://www.advanced-monolithic.com/pdf/ds1117.pdf" H 6950 4750 50  0001 C CNN
	1    6850 5000
	1    0    0    -1  
$EndComp
$Comp
L power:GND #PWR0108
U 1 1 5DE4F1DD
P 7500 4550
F 0 "#PWR0108" H 7500 4300 50  0001 C CNN
F 1 "GND" H 7505 4377 50  0000 C CNN
F 2 "" H 7500 4550 50  0001 C CNN
F 3 "" H 7500 4550 50  0001 C CNN
	1    7500 4550
	0    -1   1    0   
$EndComp
$Comp
L power:GND #PWR0109
U 1 1 5DE4F515
P 7500 3150
F 0 "#PWR0109" H 7500 2900 50  0001 C CNN
F 1 "GND" H 7505 2977 50  0000 C CNN
F 2 "" H 7500 3150 50  0001 C CNN
F 3 "" H 7500 3150 50  0001 C CNN
	1    7500 3150
	0    -1   1    0   
$EndComp
$Comp
L power:GND #PWR0110
U 1 1 5DE4F94C
P 7500 3050
F 0 "#PWR0110" H 7500 2800 50  0001 C CNN
F 1 "GND" H 7505 2877 50  0000 C CNN
F 2 "" H 7500 3050 50  0001 C CNN
F 3 "" H 7500 3050 50  0001 C CNN
	1    7500 3050
	0    -1   1    0   
$EndComp
$Comp
L power:GND #PWR0111
U 1 1 5DE4FD50
P 7500 1650
F 0 "#PWR0111" H 7500 1400 50  0001 C CNN
F 1 "GND" H 7505 1477 50  0000 C CNN
F 2 "" H 7500 1650 50  0001 C CNN
F 3 "" H 7500 1650 50  0001 C CNN
	1    7500 1650
	0    -1   1    0   
$EndComp
$EndSCHEMATC
