<?xml version="1.0" encoding="UTF-8" standalone="no"?>
<svg
   xmlns:dc="http://purl.org/dc/elements/1.1/"
   xmlns:cc="http://creativecommons.org/ns#"
   xmlns:rdf="http://www.w3.org/1999/02/22-rdf-syntax-ns#"
   xmlns:svg="http://www.w3.org/2000/svg"
   xmlns="http://www.w3.org/2000/svg"
   xmlns:xlink="http://www.w3.org/1999/xlink"
   xmlns:sodipodi="http://sodipodi.sourceforge.net/DTD/sodipodi-0.dtd"
   xmlns:inkscape="http://www.inkscape.org/namespaces/inkscape"
   sodipodi:docname="sewable-esp32-header.svg"
   inkscape:version="1.0beta2 (a1ff676, 2020-03-31)"
   id="svg6259"
   version="1.1"
   viewBox="0 0 200 30"
   height="30mm"
   width="200mm">
  <defs
     id="defs6253" />
  <sodipodi:namedview
     inkscape:window-maximized="0"
     inkscape:window-y="105"
     inkscape:window-x="361"
     inkscape:window-height="1030"
     inkscape:window-width="1424"
     showgrid="false"
     inkscape:document-rotation="0"
     inkscape:current-layer="layer1"
     inkscape:document-units="mm"
     inkscape:cy="54.575851"
     inkscape:cx="326.84193"
     inkscape:zoom="1.1512694"
     inkscape:pageshadow="2"
     inkscape:pageopacity="0.0"
     borderopacity="1.0"
     bordercolor="#666666"
     pagecolor="#ffffff"
     id="base" />
  <metadata
     id="metadata6256">
    <rdf:RDF>
      <cc:Work
         rdf:about="">
        <dc:format>image/svg+xml</dc:format>
        <dc:type
           rdf:resource="http://purl.org/dc/dcmitype/StillImage" />
        <dc:title></dc:title>
      </cc:Work>
    </rdf:RDF>
  </metadata>
  <g
     id="layer1"
     inkscape:groupmode="layer"
     inkscape:label="Layer 1">
    <g
       style="display:inline"
       id="g12081"
       transform="matrix(1.6035013,0,0,1.6035013,-12.480685,-12.599719)">
      <text
         id="text11239"
         y="21.059456"
         x="13.522901"
         style="font-style:normal;font-weight:normal;font-size:10.5833px;line-height:1.25;font-family:sans-serif;letter-spacing:-0.926042px;fill:#000000;fill-opacity:1;stroke:none;stroke-width:0.264583"
         xml:space="preserve"><tspan
           style="font-style:italic;font-variant:normal;font-weight:normal;font-stretch:normal;font-family:sans-serif;-inkscape-font-specification:'sans-serif Italic';stroke-width:0.264583"
           y="21.059456"
           x="13.522901"
           id="tspan11237"
           sodipodi:role="line">SEW-ABLE ESP32</tspan></text>
      <path
         sodipodi:nodetypes="sssssssss"
         inkscape:connector-curvature="0"
         d="m 15.775515,10.191023 h 79.702531 c 1.29657,0 2.630793,1.076751 2.340379,2.340379 l -2.15152,9.361513 c -0.290414,1.263626 -1.043809,2.340379 -2.340379,2.340379 H 13.623995 c -1.29657,0 -2.630793,-1.076753 -2.340379,-2.340379 l 2.15152,-9.361513 c 0.290414,-1.263628 1.043809,-2.340379 2.340379,-2.340379 z"
         style="fill:none;stroke:#000000;stroke-width:0.606032;stroke-miterlimit:4;stroke-dasharray:none;stroke-opacity:1"
         id="rect11245" />
    </g>
    <image
       style="display:inline"
       y="3.2557311"
       x="150.08391"
       width="44.852482"
       height="23.488539"
       preserveAspectRatio="none"
       xlink:href="data:image/png;base64,iVBORw0KGgoAAAANSUhEUgAAAvgAAAGOCAYAAADisXeiAAAACXBIWXMAAC4jAAAuIwF4pT92AAAA GXRFWHRTb2Z0d2FyZQBBZG9iZSBJbWFnZVJlYWR5ccllPAAAMBtJREFUeNrs3U1y20a7NmDYlUFm R6cy8CgVegWRV2BqBZZWYHKWjGStQNIKJI2SmegVSFqB6BWYWYH5VUYepIrvLLPzdVstv7SsH/4A INC4riqWXIktEg8a6BvNRuNZkbkXf54Mwo834dUPr60GfKRZeI3D6yq8Lj//djAr4Katbocfb1Nb 3b7nr9y2m5F2A9z17x8/xz5uvs+7a5LOI2c//v73VMVYo631wo/9BfqrS21tM55lHuwPw6vX4I8Z Q9pZCGtHmmKng31so+cPdMgPOQ2vY0EfSME+9nfvlvhnMYANhS9WCPaH6UJyUaPwOghtTX8l4K8V lrZSWNpt0ceOoyp7Iaw50XYv3MeT5Emx2rdL09RuJioJnQ1ccfT0olhtMGuWgtdIJVmgra3TX8W2 thPamv5KwF853F8X939d1HRfGr+w1rlwf67dAGuE++ti/emnQyGfBcJ9Gf3VXmhrYxWt3vPMtuei peG+SCfoi3SRQv7hfreEk+Vtu7lO03yA7gSuXknhPjoPv29XVXmgrZXZX12kC1ME/IUDU5x72G/5 ZvRKOohodlstez9vaTfQOedFuQtHnKeLBpgP92X3L/orAX+pwHR7g1EOdsP29DXNrB0W5a/o1E9T foD8Q1c81svuJ3LqR2l2f7Wd2jAC/pMGRTOWwCzLvqaZpzR6P9BugAYe64M0Ygvzy65WdeGAgP+k t5ntl11z8bNV5TzX7bSWPpBv6IrHeJXH+UCVmeuvqsoiPXPxBfxHpSCcYyPR8PP0uuLf31diyFrV x/hrJaamtuDGbgG/k0FYUMtTr+Lf/4sSQ9aqPsZ7SkxNbeFXJRbwIRfbLf/9gHMI2loZTEUW8DUQ AAD5iq4EfKMNAACQUcB/k+m+mWqeAAB0KuCnB0LlOoI/1jwBAOhMwE/LY55kul+mn387mGqeAAB0 IuCncH9e5Dt6f6xpAgDQiYAfwv0g/PhY5PuAhDh6P9I0AQBYxQ8NDvL94r8Pe/qf4ma0Pr5yX7Zp qFkCAJBFwA+hvhd+HIbXoKP7Y/j5t4OxZgkAQOsDfgj3Ryncd9XQ1BwAAFof8NMNs9dFdx9YNS2M 3AMAkEPA73i4n4TXmVF7AACyCfjFzZScusL9rLh5eNRfDQj2E+vcAwCQVcBPq+S8qynYn4XXaQjV M7scAAABvxp13FAbA/1OCPYTuxoAgC7YyIOu0nKY/RreSrgHAEDAr0EdT6EdCfcAAAj49Xhdw3sc 270AAAj49diq+PfPrFIDAICAnw9TcwAAEPABAAABHwAAEPABAAABHwAAEPABAEDABwAABHwAAEDA BwAABHwAAEDABwAAAR8AABDwAQAAAR8AABDwAQBAwAcAAAR8oFlmSgAAAj6Qj7+UAIAWmCiBgA84 YQKQDwNSAj6woLESANACl0qQX8DfUnoo3ejzbwfm4APQ+P7qx9//1l9lGPC3lR5Kd6wEAOivqD3g v/jzZFfZofyT5effDqbKAEDT+6sff/9bf5VbwA/eKjuUKk7NOVIGABpuHMK9/iq3gJ9G743gQ7nh fqgMADQ93IfXnjLU44caw30//DhXcijNsZF7ANrQXxm5zyzgh2DfCz/2w+udcsPa4qoDl4U59wA0 36gw576ZAT8E9LikZb9YfuWbX9K/2cSKOb3wuZt6pRgD2jiEs40+kGiN/doGsbaTzAJwbDdnZYzY h32/nfZ925erHaf9bKk1yNi/f/ycc38V+6lxZgF4NhfsZ2vu+9sc2csgl4zrXBr02SMhIB5MceTd nPnqDur34XVaZ0BJ+/UwnSxzN06huDEP0wj1/78ygv6y7SZd0MVv0d5mcKK8a5T2s6f40oWwe131 +TuEkGcN2dYu5ZB4/joLtR81qK2V0V+N0nZNl3jf2F8N0r7Prb+6TPUY1x7wUxA4F+xrvdIdVh1C 03696Eiwvy/oD5swol9CwJ9vN3GazukC77mbjuncHzB3mmpiRB8Bv8UBPwW8ruaQ2F8dhH0waUBb K7W/Ctt0usB79tO+72W+n0dpP1fWXz2/EwTi1yCfhPtafQneVU4pmtuv/Y7WOG73x1SHnNrNSdim 8yf2/VG6sOvC06PjNxTX6WIWaOcFTNdzSOyvrlPQzaq/Ctt0/sS+H8Rt70C4jwZpP1e2rc/vhMDr jgSBJjqsIuTbr9+cYK4zC/lfThIPhfzUng47tp+3hXxodbjXX6X+KtUjq/7qoZCfwn3XVlrcTvu5 kvY+P4J/7qBqRMgvbdRiblqO/fptyM+tHjHkv7uz73c7GO7nT5oXmju0jhzyrcrC34ZD/tGdcN8v uruMeq+q/up5CgNHRZ53p7fRSYkB9LDoxlddy4b8k0wvDntzF3YnHd/P/VCHgeYO7ZBCnxzyfX+V Y/A9vDM1pevPSOqnbzDKDfgpDOw7jhp1Nbf2jk5hz7MHHhhBuA3DmXUEtyP2Axd2Xy9wgeaHeznk YbtVztPe9Pk5BVv9VQX91fMUBnwl1ixlnOjcKF19jRvXEWS8bStdLJc55Q2ojBxSc/hrwj53Yfdt f1X2KH4M+G/UtZHBZN2vKt8q46P6GW7TVppu17N7v3qtBNB4ckj3+qsozjIwLaui/up50d2lE5tu e8P/Xn3byYWd4wAE2Lz0Mp2m48KuwuPguXo294Be9R9mOL+8EumpvtqNEyaAc3v9DMBUuI8FfI0E ADYi05Fp2DgBHwDYFAF/MW5C7sYFb2n7OdeAP+t4G/G112L6SpC/TKdigYDfLRYMkEuWDviTDAs0 7vg2uHFlMW5ItZ8Bx2cbWPK3G0rLb88zCcN3HRctH8X//NvBSvsljVb2HSML6XnaaTc6RjeeQ/P8 +8fP+qsl+qtQLw+vzF98PkApszBiwH+fWXGmIRzHbyVGLd6GlT57Wjv/wvGxlJMSnjlAs8U5jRfp qd1AM8L9lv5qaYdlhT8a7byMufjPUxgeZ1SY4/TzrMXbsPRFVxq5vy7ciLNK+Ls2Tzt722k/95QC Nh7u4/n2k/5qtf4q1M90nQ70V+tezD1L4TD+ko81fvhZRQf2JFywvJoLvUdF+x7xfBq24WDBUL+d GkKcwyigrm+cLq4m6cK3dGGf/Z8yb9wovK7Sfp4qBy0Lx9dVn+9//P3vZxV87t5cfyWglthfhf01 qait6a8a1F+F/bxUf/VsLnjEuV0nNXzYaXqVfYKKFw07d4NZ2K6PRXtWlZmkbZjd2YatdEJ8k+pm 1KPei9FJOsBGd/eNgJ+N6e1+Dvt4pBwI+Ct/Pv1VQ/qrsB9na7Y1/VXD+6uwj0dPBvwUPs7Dj0HF H2wvvPZLPkHdG+7nwvF1C0L+d+E+ffZ3qV5Oks04ecapX6erBn0BvzUnz2NBHwF/6c92pL9qlNN4 Lls16Av4rcklcR+f3v0f36yDHzq0YfhxUOEHiSOglxV0xjsPTalIQWwnvC4bvIPG94T77XRhcuhk 2RhbaX98dGNu1nrhdR728bUbc2GhILgdXh/1V40TBwg/uTE3+1xyEo+/uzfmPr8nEMergFdF+Tfe nqYLiFKvWuJnfWq+dAzO4RW/OdhLFwRNET/LMHy2h8K9g7K5AfBayM9eP+1ngQUeCff6q8YHQDfm 5u/LvbTpXpcvHv0aLq04sZ/+YX/FEB5Hzt/Pr+seR8bW+H3x98T5ZZdrTJO4nR+4vYGT0jRtw4f7 pgCkmn8sjIK0wYNTwx5pe77ybJ97742BDQXqxkzRSSOGVsNpUX+1zA25pui0t7+K07J+eOxvpRUm Dhr0wbdSIJ+mjVjpzvE0TaipU3bOazpZfr34Km5WE8kivKTlLuPF26CGOm6l/fWqwSWZpn08XvXh aQ3cx710Hrjdz1WL73XYsHMhNMFFjeF+VPx31Zgs+qu0XKj+6ttcEu9zG4d9PM5kH2+lC/La+6tn m9jgNUbw74oB9SCXpe7SU1XPa7rC28t5icA0reKiqGf50OGiN2TWPII/SsfHLOP9fPtwt14Nb/fS spo0IDA0YgQ/hdPruvqrZZcIbGEIjH1/HdNo4g2ZRwt+rtr7q1wu3h6o53baz3XMHNl53vJ6xYPh Y5pyk4P9mk6WO7kHlXTfRV03VzfxWQvxhvZh7tNK0vSoOCI17eh+hk2p43i4nW6QdX8VQ2147RUr PsV+SW+b2F+F7R/mHO7Tfv7SnosVZ58su5+fZ1Cz28fQD9q8EXPTDqp0O2e8S3OJh2m7q9Rr2A23 45JvaG/8xVzaz3UMKEDnpRv5+jX0V3u5h7474jTAqi9meunbl6aIU64601+l9lzH9g6eZ1S38zT/ uq3qCA+jrt0omLb3rGPh77hrgSPdXzCuejDByknwRR197WXuI/cPhL/jTPbfos66dvCkkfxR1e/z PLO6nbd4SbtfaniP9x3tjEY1vMevDdnWWS430za0fQv4UM89L13tr+qYVvq6QWF31NH9fCXgL3/S edfSz155cFhmOcec1HS/QVMuLDu5j5M69nOvACofkMplFZUVtjuO4nflm/Zxh4+hyvur5xkWbb8A AFzottNECbK/kKt8H+cY8LdauqrOrOW/H4Bu+KAE0GzPM92uNs6T/cuIAAB0euoGCPiPeN3Czzxp +e8HQAAvw1SJQcDPwuffDuKd81VOo3mvygCsK90AW2V/daXKIODnpKrlsaZdXUEHgEpUtX75NFxA XCovCPg5iQ+4qGJU5EBpASjRaUX91bHSgoCflbRee9knt8s0/QcASpHWax+W3V91+MFHIOBnHvLj qEhZJ7hJBSdgACjSVBr9FQj4LBjyhyWcNOPJcif8LuvfA1BVyI/91WkZ/VX6VgAQ8LMP+XvFanMc j8O/fyXcA1BDyD9Yo786Fe5BwO9ayI9ff74sbublT5/46/HkOIp/P/y7I9UDoMaQv1J/FS8OhHso 3w9K0PiQH098MbAfvfjzJD6hN756d/7aOPy9sWoBsMGQ/7W/+vePnx/sr9I6+oCATwr7cZ6i9ewB aHrY11/BBpmiAwAAAj4AACDgAwAAAj4AACDgAwC0TV8JEPDhCS/+PNlVBQCaLi0vCgI+LOCtEgDQ AvtKgIAPT0ij90bwAWi0f//4uR9+DFQCAR8eD/fxq85zlQCg4eE+9lcXKkFZPMmWHIP9VvjxLrwO VQOABgf72/4qTs3ZUhEEfMoIwv3wYzuzk8qvxc0KBE6UAPkEYf0VCPg8EerjTae7TioANDjU94qb b2L1VyDg80CwjyfHk8INPAA0O9hvpWD/TjVAwOfhcH97805PNQBocLjvpf7KevAg4PNIuI8ny+vC 15sANDvcb6X+qqcasB7LZObvQrgHoAWEexDwecqLP0+OCl9zAtBw//7xs/4KBHwWCPdx1N4jrwFo erjXX4GAz4IGhak5ADSfZTBBwGdBb5QAAP0VCPjko68EAOivQMAnA2lpTABoA9NzQMBnAQI+AI2X HmwFCPgAQCYEfBDwccIEQH8FCPjd81YJAGgBK+iAgM9TXvx50i+sSABAw/37x8/xybW7KgECPo+H +7gSwblKANDwcK+/AgGfBcJ9HAm5LsxnBKDZ4f62v9pWDajGD0rQ+mAfv96McxgHqgFAg4N9v7i5 R0x/9bhZ4dkACPidC/LbhVGPZU0L32wA1BXkb/ureN7tq8jS/dVU3RDw8w/278KPQ1fzazkuzPUE qDrYD1J/1VONlZ0VVhaiBObgNzfY98LrY/jjiXC/ltHn3w5GygBQWbDfCq84p/5cuF/L+Mff/z5V BgT8fMN9nIITw72pOOuH+6EyAFQW7m/7q75qrOUyvPaUgbKYotO8cB9H6y8Ko/brnijPQrgfKwVA ZeH+dqnLnmqs1V+9//H3vy+VAgE/b3WeLOMJ5aq4uaEnB9MQ6qeaEEBt/VVd3zTn1l/NQqifaEII +B2QnkJbx1P94kllGMKwkwsAS0tLXtbRX8VAPwxheKzqIOC31WFN4X4nhPuZcgOwov26+qsQ7vVX sCQ32TZEXDWnqP4mpXiS3BPuAVhVmntfx+j9ULgHAb/t+jW8x8gcdQDa0F+Zow4Cfg56NbzHe2UG YE113FirvwIBPwuvq34DN9UCUIJfqn4DN9WCgA8A1KenBCDgAwAAAj4AACDgAwCAgA8AAAj4AACA gA8AAAj4AACAgA8AAAI+AAAg4AMAAAI+AAAg4AMAAAI+3TRVAgBAwAcBv20+2NUA6JcFfOiCiRMm AC3QlYGav+xqAR+cMBdzaVcDOI/bzm77QQnogs+/HVy++PNkGv7Yy/lkGbZzZm/TZf+8eLMdfmyF Vz/9p/jt3fSnz1cT1aENfvz978m/f/yce381Dts5tbcFfCjDcXidZ7x9Z3YxHQ31MQgdhtduCvf3 /Z148RtHDN+HsD9WtbVM5i6gKhEC7lYIgF0esMi9vzru8gEU2ne/6vcwRac5Kp9C8uLPk90uF/jz bwejIt+5+Kdh+7oeWvo1vIdR4GYF+63wOgl//BReg4fCfbKV/s51+DcX8d+q4Mr+U8N7dLq/Chc3 sb/K9Zx+Gbav6/3VtoDfHXUEh7fKXOyF1yzDtnNs19bSvgX85oT72EFeh9e7FcPjp/Q7WN44k+NZ f7WZ/mpo1xb7Ar4TZpl2X/x50u9ykT//djANP3YyOmnGk+VO1+feh3Z9VFQ/X3Wa2g/NCffrBPQ4 gn8t5C8vjb5Wfc7p//vHz10fxZ/l2F91fOpVnJ7zro7+SsBvTvCMDX5Uw1tdhDC03fFax5PMq6L9 o7GXwv2XcD8obuZfV809Ds0I9zGYnxePT8dZNuSbrrPa+adq5yEMdbq/ijfchh8vi/ZP17kU7r+E +9hfndTwVu8F/GapY5rFlw4thKJ3XS50HIkNrxjy41eF05Z9/HEK9ntdDvehDW+F10lRz41odV2A 87R4MVdm6NuqqcPVX622bz6GUHTU8ZA/C6+dlvZX8QJlL3z+vS6H+3jTeGrHdfVXp8821DHHr1b7 VQagEHx2Whpajop6RiNvG0G8qv5/LT1mYtCdpRH5deseA0Oc8/muyjYX3uf/1thXcQT5sqTt7afO s62jY7+mc0hdI6/xYsqazRuWVsv5VNGvf/nT56vGh6cQEqruP2OgfLbgZ9FfLdlfpRH5ddvA2v1V umB46n3+b42PeRpe70va3rb3V78Uj6zwVYFhvEnbMpkNE0LEUQhfr4t6VgS5XVWirQ5TWL098R8v O0c6jgKnGrxt+MljK23vr+EzX6UVgVYJ9ftFx1enWKWjEu4bo8rzVTy+3Py33IXAUQhfv9TUj2TR X4V6fV2udZWVZNIUj/0WhN0v88zD571KKwKtEurftnyfb8Lott6m6DTTXpHv8lhVnvg/hRB7nkL7 IoH3y0oaxc3X820ZGYifOW7jx0XvpYh/L31rdi3cL3+yDOH+QBka403FxxbLOyg8kXSV/uo6hNiL OHVjwcC7G16xvzpvW38VP/ei676Hv9dL31JdC/crhfuvgxQCfgPFedVpusepaiwtnhCeDL/xQiD8 uCjq+8qsbNtpOwdPbOcgnSj7msZS4ijbMByHRnQbIt0IW2Ww2bKizvLS/PA4KGWp3tUC8KenbiQO //8k9Ve9lm5nL13QvHvqIib2a/qrlfqrg/lwL+A3P+jHkZF49/xINZY/mTwU8lO4z2Vk4PyhkJ/+ e1mrjXTpRBmPt1erTIOi8ovaqjlWVg/6R/qrldvc9UMhP/z3eA7PZVGMk3Sx8lC4v3AMrtZfhePv uwFhc/CbH/Kn4ccwhLWDdLUfw+vrub/iSvfhk2ZcEvTV/Eoz6SbmQWbbGkP+bH6eeLq4sTLI4yfG +Zu/4pOkJ+baw1oh/0t/FcKa/mq1kP9yfqWZNOKdW3/1LmzXh7Cdl3PbGfurc83gUeO7/VVxc7P0 gysTCfjtCfoPLtM3tw54T6W+0UshdzgXeg8z3dYY8sdzFzNG7h8+SZ4J8lBp0H+wv0o3ieqv7g/5 8by9l+p0239l2V+F7ZsPpyf6q3t9eUr9/MXQMkzRySP8xxPpq8JXo/cZhOB725EcZryd8eT4bu6C z1zi78VVlnaEe9ho+NdfPWx37mbUTvRXaWpO367/Trxh9tWq4V7Azyvkz9INgWPV+M5hCvm5r5Kx f+cn/xWXujxSBmhEyJ+lGwJdbH/vbVpZZ9CR/uqtXX5vuF97gQcBPz9W/fjebtGNJfC2jN7fa2qp S2hsfzVThm72V2m6luVp7/RXxc3Ss2sT8DOTbsodqcS3J5IOjRIYvf/emRJA8zw2V7/j/VVXzuNG 77/3/rEbZwV8rpTgO9u2s7NMA4Dm+qAEnT2P9+3q74zL+kUCfp585QlJ+lYL0F9Bo/34+98CPgDQ ei7AXXxRAQE/TxMlaOyJUGemg4ImB+Jaz1Hp4VjIEmQS8Ks+oDs9py897EiwqddfTpg6KGjQuaZN x4yQ38zzohxRr3EOAf9DQxqvhkLd9XZDWV7nGsjt3P4hw21itX1swY5mXng1OuBfVnhlOPOkSgdm zeI66+Ml2j71GSkBOfnx979jCJhW3D/rr/I1W+LpqPqrer1vfcBPU0iqajjWvL6p8ajwtWfjDkrP KajV2Ao6ZOq4qgviTcyJT4HTsVqPsyX2i+cU1NhfpYv3dgf8JD6pq+xR/Pj7TrWTb2pMtaYrtLlj ZdP+YY1APKooEB87XrO2SkY6LszFb+VF+8YCfhrFH5b8a/fS7+Wmxpeuvis3XLbNpVFlnVnFYSHU 2b045Gyv5OB1sMkVbdIovv6q4v5q2aekpjahv6o43Je5/v3GA/5cAC0r5A+XmAfdqaBTuOm4ynA/ XrHtn+rMKjNK9YVspa/zywpecWrOaQO2KeYB876rC/eXK+6X2Fc5p1bUX4X6HlXxize+Dn6aK75O yJ+loCUs3V/fWJ8dYbJUpbS58O9juzddp1zHqa7QhZAfz0HrjuQfp2DdlG3a01+V31+ltrLOfjko yp910XWnVR57jXjQVQpKr4rll8qKf/+VcP90yE+hZ1iYS7euUttc+D1H6QLMtyzrmcY6pnpCl0L+ Zeo/lx2djeecnapGD9fcpmG6cJnaw+v3V+uG+zsXlKtkNe7pr9JFU2WeNW2rX/x50g8/3obXbnht PVCY2Ljem5Kzco0H4cebVGMWOxhjWzurcl532C+7c/tlS9mfNJs7F/haP3P/vHgT+4brit9m56fP V63tV/794+ftuf6z98AxE4+Vq1Wna2xgm/RXq/VX76uY1z23X57KatzfX12VdcHVuoB/J/DERrM9 P+LgJtrSa7zt4HzURtpc2C+9BzpoUidmCUwBX8B/NIDd7T+nm7yJtqRtcl58or9a9iZa+6We/moT x94zdQegBQF/EH6cC/gAT3uuBAC0wGslABDwAcjAPy/exOkm5mADCPgAZOKwcK8QgIAPQPuluffv VAJgcT8oAQANDPa98OOkMDUHYGlW0Wlmx3a7vFkvveLa6zOrO6xWt/gz1M7yqk/X7fZn6+sWtul2 e/r28L2+nEuqPqekpS2LFfbDrxsK9qPw+n8N21ezdExOw/6aOn66c/yAgJ9PyBoUNw+O2H7kr355 SEk4sYxU7WvtYt32n6hb7CDP1C3fuqVQsl948MqyLtM+Hpe0H/pz+4FyxYD/Pl6IlB320zcmh46f zR4/IODnFbTiCfV8yZNqPLkPu3xSSXWLX+H31G3pAHa+Qt0OQt0uG7g9W6kdDJxN1jJOx8Z0xf3Q S+2qr5S1OA776sjx06jjJ54jJ0qBgE88uZ6veWKNJ5TTDtYtdkjr3HhXSufYwbqdhrodNGh74qj9 dWHEsSyzFPIvl9wPqwxSsL4YJndWnUqXjp+LwlNIyzx+DnxTjIAv3K8b7jsZVkusW/yae6hu7ayb cF+p4aIhpaYnzFJyyHf8NOP4AQE/v7AVA/lhib9yr4nTJyqoWxx9PnEiXrpuZYewjX5zlKYVfBJO KjNLoXEiJLbCOOyrnSWPn4+FkfsqvTJdh02yDv5mwsl2yeE+Ok8n7Zzr1is53Ecn6raSw/R7N+VE qKzU1oIXhKblNEM/DX4sfPwK95W7UAIE/O45qeB3xk4294fBHFZUt5MO1G2rgrodbmJj0oXFwGmk ctvpm5+H9kP8f9vK1JzjfJHBinT8eHBY9XqPHT8g4GcmnVz7Ff36/czrVtXJcjfXUfy55VerMNhQ 3Q4L6rLfxfNNS8VjcXfNfYo+GQGfVcNklSf4tJpFjvpV1q3Id2m/3Zb//qa8Z1dt3zcVK/03o/fN 88bx0/zjBwT8PL2u+oSibo38/Zvya051m3vCJjWGlA6dZ9qu/8TxE8OmwNmgfQICfj6qDie5BtWq O6VcA8t2y/dL3ccPAn7O/Ytwn1/fBQK+q3nQWULO0pOqAQEfQMCHTMyUoFF+UQIEfIDH/Y8SwMM8 XKlxTGdDwAd4ghVAvhVHazcR6MaZ1nOSQXvYtLHD8tuAbyUdBHyAB6SHxugovw9TmwilOY4ST8Pr LIP2sOkLpCuH5Xc8uwMBH+CecB+/5j5Rie/EMPW+7jf96fNVHCm+zKyWlxls0/sGtMdLh+V3Bp5q i4AP8H24vy4skXnXNATtUXiNi5vR57qdZVbPs3ThMmpxe9hkuI61Ow2fYdriGlbpXMhHwAcE+xDs w+s8/PGjcH+vg7k/D+t+83RhMc6klscpmH75c9HOlWgOGnKB1OYa1hHyrzN+4jwN8oMSABsO8rGz iw9ou31KrVUnnjaaH62NYTvU8TT88V3Nn2NY4wVYvJjoV/B747zx07laTkMtY1g+b2t72IBJeP+j OzWMId+0uu/FNtwP9Zlvf/FiKF5gfgivy7kLJViZEXxgU8H+XXh9Cn+8SMG0L9wvHEi/G60NoSD+ t1GdHySNeu8U1Y/Wxt//vqJa7twNVHHq03zob3p7CJ93uOH2uHNP2zgtTNVZxHY69w3SReWncF48 Ci/fWiLgA60K9nHqTRz1jaN7PRVZyui+QDoXqoYbCPm3AW9a4dscVPD7J0/U8qDY/LSXhdrDpsP9 E+3x2GG7lBjsD1PQ7ysHAj7QinBf3Nwwa6R+OTFADWNgeurr+xSq9ooab7xNIf9VRRcXwzSiXmYt 45z7VwvU8jRt17hh7SHu271F2kOF7XHRGh6lixAP4Fo+6F+7MRcBH2hLuPfV8+IuU8D932VCbpyP HV4vi5s58rXMzY5BL11cxPc9LeECI37uVyWG+9upTS/n54svcvESXjsppI6Kzd48etseXm5ozv2q NRzHi4F04XlZuAF3GeduymUVbrIFauuoagz3MUR8KNo7ajhLo+LrGqea3968XHn907z8r9NbVplm kFboKdM4tYXxqiPec6sGDdOTSXstbA+bruHXZw1soIZlip87LgywW9M5LYb8ydxKTyDgA5sXb6gt 6pmWEwPIsAFhaNP1jgEkzuMdbPqzVBDWV9FPr3hjd/w8x+t8rhS0uha21PBbo7nVlqoeYb+dlz8s YEGm6AB12K8p3O8I91/m7H5sQrhvcFCNc5st4aiG6168xm9W4rSjUQ1vN0gX7iDgA40InHF0q+qO aVY8sppHx8J9nVOh2uxdepAaarhu0I8j6+Ma3mpfk0PAB5ridQ3vcSDcfw33LG4goKphWeegGt6j r8wI+EBT1DH3/rLLBU5f3ZtysnpAHSjD2jXs9EovaWpg1dMDLS+MgA80RtXTRSYe7W5azppOPDl0 /RoqQeOel4CAD1CZqkeduj41p1f46r6Mi9CBMqyl55uQ4j+aAQI+AGVw41053iqBGoKAD0ATmJdb Uh1N01lbXwlAwAdAqHKxlJFVnlwMCPgAAICADwAAAj4AACDgAwAAAj4AACDgAwAAAj4AAAj4AACA gA8AAAj4AACAgA8AAAI+AAAg4AMAAAI+AAAg4OdiWvHv31Ji5mwrAQAI+LQ74G//8+KNkE8R2kHP BR8ACPhUb1LDe+wqM8Gghvf4oMwAIOB3XR2B6MQofrel0fv9Gt7qUrUBQMDvtJ8+X8VANK34bWK4 vxbyOxvu436/KKqfnjMN7Xmi4gAg4FMUxzW8x3YK+X3l7lS4j/v7Y1HPzbXHKg4AzfODEtTvp89X oxDE9msIYbchf1zcTA0az32GsT3R6iC/daf9xGD/pqhv1ZxxbMf2BAAI+PzXXnEz0lrHNJp+eh3O BcT4I06veB9eoxDWZnZJ40N9r7i5cbbOIH+fWWq/AEADmaKzISFQT8OPnRSWNiWGxJPw+hTC45G9 0uhwH/fPp3SRtulwv+OCEAAEfO4P+XEE/VVRz9KZj4nfIhyGEPnRjbmNC/Zbcb8Uc9++bNA4vF66 sRYABHweD/lxJZIY8odF9avrPOV2zr6Q35BwX9yM2m/6abSxXQ5DOzVyDwAtYA5+c4L+KPyIN9/G MBcfVPV67n/3aw75cYnFHXtl466Lep9EG8P7/Oh8vDH70og9AAj4rBf0J8U9U3ZS8I8r7wxq+Bj9 OOc7fJYje2Qz0pz7OkbuY6g/K25utJ6qPAC0nyk6LQr+4RWn8cTpPHUEsX1TdTYW7ntFPXPuv9wD Ei/khHsAEPDZYNAvbpYorHoudAz3AxXfiDrqHgP9jmAPAAI+zQn5BzW81RvV3oi3NbzH0A2zACDg 06yQPyqqn6rTV+l6pWlRvYrfZuJJxgAg4NNMlzUEzm1lrlUd9b5SZgAQ8Gmm/9TwHm60zY9lLwFA wAcyYu49AAj4AACAgA8AAAj4AACAgA8AAAK+EgAAgIAPAAAI+AAAgIAPAAAI+AAAIOADAAACPgAA IOADAAACPgAAIOADAICADwAACPgAAICADwAACPgAAICADwAAAj4AACDgAwAAAj4AACDgAwCAgA8A AAj4AACAgA8AAAj4AACAgA8AAAI+AAAg4AMAAAI+AAAg4AMAAAI+AAAI+AAAgIAPAAAI+AAAgIDf IdMa3mOrIdva78h2bmunrd13tfvnxZvtgjadZwAEfBoR8F83IMT06gjW4X2aEBR/1U5bu+9cEFZr VsN7/KJbAQR8Nm1Sw3vsNmA7BzW9z0a3NYXUyj/DT5+vxtppNt52ZUNDu53UEPJ3O3yxCAj4NKTD m9UQnnqhw3u34dC7X9PbnWy4c491rvr9LzewXR9qeI/DrgWzsL39ontTSqq+OI1t6FDvAgj4bNr7 moJv7VMBUmC7LuqbYx3f52ITQTG856CmYHG1gQvReFFR9chrL7zOOxTu4/F44XxXzYV2Oh4BBHw2 ZlTUMzf1Y50j+SnAxHBf94VFP75vTfP+b7f1qKZwOg1he7ShdnpWw3vE6RUf69x3Gwr3uzVf+DZG ulic1vBW5+m4BGilH5Sg9R3eLHREw6Ke0bw4kh+ny8RRtHFF7xHD2Ztis3Oq40XFp7CtMQx/qDBQ 3G5nXYF0uMF2ehTq+aaGC7a69t2m2uXbols31j7Ujq9reJ847SvWO15UXG14mydpSiaAgN+hkH+Z As2ghreLYfSw6MY81UFR3w2+VTvdwM21DwWzLfuONc5343C+O67pHBTPd+/Sa6PCNseAH4/hqw1+ Ewe0hCk6+XR6MTw56XOfUWgfBw1oo/GG8J2inill5H2+O+rg+e52la04fehTmqoFIOB3JOQfqwRz DlK7aEobvQ35E7uGEs53Bx3d/F5xsyDAuZYACPjd6PSOwo9XRfXLydFscd7wy9AeThvYRuN84lfp YtRoPuu0pdi+Xxbd/fZyIOQDAn53Or0YoHZSx3eQwr4R07xNUqg/SMF+L7ymTb8YDa//DX/cSwFt LPCzQjuaptH82/PdZcfOd0I+8B032Wbe8YUfp+n1VVpGMM7fjCvi9DLa5BgSz9I0kNtt7Rc3K48M MtrOuF/j6Pe46SF+wXZ6WdzzAK40x/hN4WZZ1jvf3c5dP8zsfHc35L9vwI30gIDPpjvCtPLOSQYB Km7P3nywn9vW2OHFVTfi0p5xKdG2rx0+atKc+jqCf0b7js20o1m6+B+lte1zXQEsjuK/tMeByBSd jnd8Gay+EzvvV/eF+3uCfttXcDntSrjPcN/RjLYUA36uCxH0rKwDCPjMi/NWpy397HuLPgAmXQS0 ddWNSROWutxgMJsUVoiivJA/znTz3tjDgIDPbYc3a2l4miw75zQ9IKaNFzNn2umXFVOmjlgcTw/q 27WAgM+8yxZ+5quubKsnV7a6ndK84ynXdtSzdwEBn/kOr43zm8cr/ru/Wradljj9r/8oARs+fzTa Py/ebNu1gIDPvK7cxDi1X7RRyJTVpgABn28YKUYbhRazFj4g4HNX20ZHVw17U6FWG83IVAkcVwse HxN1bfW2O/8h4LOSD206ka5630B60FebTpR/aZpf991EJ/eNeLPoWBmyP98tavzE8TOrOIROWno/ V1sCvmMdAZ+Vw0JbXHVoW60cox6PHQcflGHlsDTLsD085X2F7/++yw0qDR5NNrx/QcDn3pNTW0YI Rmv++7as+z/q+IiYEPGw2C4uW/xsh02f72aZXSwuuj2jii5sZkW7n4pelqqesTCzXDICPutow9NS T9PFyLoXM00/Wbb1AWRVB7NxYRT/S5CYu/jTTla/0M/lAvp4kcGACh9seGww4uszSyYVtVUQ8Fn5 5DRp+ImkzM930PDO/XjdC5mMDYtuz8WPc52P7oSKsWax0oX+QQabMk5Pel50u09Lbi9Lvb/zk/oi 4LOZTi8Gh1EDP1o8YQ7LGiVKv2enoUFx5ITe2n1Xx0Xuzj3/fa+w4tIqbWlUtHtqySTt+2WV1V5W ff+c29SkxAtH9UXAp9QT1LBhnd40hpp04iz7RNy0oHia6k/79l0t4f6+i9y5ix4hf7Xz3WlO7WGJ i+R1prtdrvr+HblwXHckf6K+CPhU1entNSBAxRPlq7LD/Z2g+LLY/LzueBGzFz7PgdbXun1Xy4Xf U519/H/h9aowX3eVtnSQznfTXNrDIiE/vPZWCKKxRvHb1D3h88mQHy+ixiv88zhF85X6sqpnSsBT /nnxJj76fBBeb8Nru6a3vV0RotZ56GFb+2k7d4v6HvkeQ2pceeHSybyUfTfIaLNuVyY5W/Y4CPXo hR/7qS331vgMx/Pz/TvSlgapdtu5tIcltvtNePXvOf/NUlC9sprLyuen2+PxsQuny6r2LwI+PBUa eqkDqCrsTqsarV/hhNxbMxw91lHHbZwI9a3bd3Vd9JVyHIRa7M5dtAr4yw9ubKfXVg7tYYVtL5yn Kj8/NabfQ8AHoNnB9F1xM2K4bjDtbMAHaKsflAAgq3AfR10vivZ+ewHAmtxkC5BPuB+EH9fCPUC3 GcEHyCPcx5H7c5UAwAg+QPvDfZxnf60SAAj4AHk4KTa7ygsAAj4AZUhL1w5UAgABHyAPu0oAgIAP kI83SgCAgA+Qj74SACDgAwCAgA8AAAj4AABAbTzJFmiM9DTWuJ777KfPVxMVAQABH2hfoH9b3Cz1 2Lvz/+KPGPLH4XUWAv9UxQBAwAeaGexjmD8vnl4BZju93oV/Mwo/D0LQn6kgADzMHHyg7nA/CD8+ Fssv7xj/3afw7/uqCAACPtCccB9H7rdW/BXx312n3wMACPjABsP9bgr3ZThP8/cBAAEf2EC43yox 3N+6UFkAEPCBzTgpVp+W85BeuHA4UloAEPCBGqXR+0FFv/6tCgOAgA/Ua7fC390zFx8ABHygXq9b fAEBAAI+wB29in//r0oMAAI+kE/A31JiABDwgXwCfmelG5gBQMAHajV2AVEZNxgDIOADtZtVHfA7 vJLOmxreY6IJAwj4APM+1PAe+10rasXPFxDwAQR8gAdd1vAegxB4+x2raxVPB/4u3P/0+WqqCQMI +ABfpYA4ruGtLroS8sN2nhf1jN6facEA7fNMCYAaAmkM3tc1vd0ovI5zHHlOdTwMrzouZKahhi+1 XgABH+ChcBqnlLyr8S3j3PFZRiWMNxLXuSzmqxDwzb8HEPABHg35dU0tYT3DEO5HygAg4AMI+cI9 ABvmJlugViE8DsOPgyKv6TM5iNNxXgn3AO1nBB/YiLSOe5yT/7bo9tNoN20cXu8FewABH6DMsB8D /nZ6Rf9T3KwUs606pYnPI/gr/Tl+exJH7OM6975JARDwAWoL/jHk17UsZK6Ow+tUkAcQ8AGaFPTd mLsaN8wCCPgAjQ358UFZfZVY2EEI96fKANA9VtEB2mKoBAubCPcAAj5Ao4XAOi1uVnzhaWdKACDg A7TBByVYyEQJAAR8ADLx0+crAR9AwAdoBcEVAAR8ICPWclcjAAR8ICNG8NUIAAEfyEV6GqsA+7gr JQAQ8AHa5L0SPOpSCQAEfIA2GRXmmT9Ym/S8AAAEfIB2SNN0DlTiO+oCgIAPtDbkj4qbkXz+a5gu fgAQ8AFaGfKHQv434d7cewAEfCCLkH/a4RLEEfu99I0GAAj4QBYhP8473wmvccc2PYb6l0buAbjr mRIAufjnxZvt8GM3vF6HV/zzVkabF9f/n4bXh+JmtRzz7QG41/8XYACbNSSLetPSjwAAAABJRU5E rkJggg== "
       id="image9743" />
  </g>
</svg>
